com\imfit\pageobject\LoginPageObject.class
com\imfit\pageobject\ConsentPageObject.class
com\imfit\login\TestLoginWithInvalidEmail.class
com\imfit\factory\Browser.class
com\imfit\login\TestDataValidationS3NextButtonNotEnable.class
com\imfit\login\TestLoginPageTooManyFailedAttempts.class
com\imfit\login\TestLoginPagePasswordRevealed.class
com\imfit\pageobject\locator\ConsentLocators.class
com\imfit\pageobject\locator\LoginDefaultLocators.class
com\imfit\login\TestDataValidationS2Nextbuttonenable.class
com\imfit\login\TestDataValidationS2AgeLess18.class
com\imfit\login\TestDataValidationS3NextButtonEnable.class
com\imfit\pageobject\locator\ConsentDefaultLocators.class
com\imfit\factory\Edge.class
com\imfit\login\TestLoginWithInvalidPassword.class
com\imfit\factory\RemoteChrome.class
com\imfit\login\TestLoginPageUpperCaseCredentials.class
com\imfit\login\TestDataValidationS4NextButtonNotEnable.class
com\imfit\login\TestDataValidationS1NextButtonNotEnable.class
com\imfit\global\GlobalData.class
com\imfit\login\TestGeneralLandingPage.class
com\imfit\pageobject\locator\Locators.class
com\imfit\factory\Safari.class
com\imfit\factory\Firefox.class
com\imfit\factory\AbstractFactory.class
com\imfit\login\TestGeneralConsent.class
com\imfit\factory\SauceLabs.class
com\imfit\login\TestLoginElements.class
com\imfit\helper\ScreenshotGenerator.class
com\imfit\login\TestLoginSuccessful.class
com\imfit\login\TestDataValidationS1NextButtonEnable.class
com\imfit\factory\BrowserFactory.class
com\imfit\pageobject\CalculatorPageObject.class
com\imfit\login\TestDataValidationS2AgeGreater18.class
com\imfit\login\TestLoginUnsuccessful.class
com\imfit\login\TestLoginPage.class
com\imfit\login\TestLogoutButtonVerify.class
com\imfit\factory\Chrome.class
com\imfit\helper\PathGenerator.class
com\imfit\pageobject\locator\CaluclatorLocator.class
com\imfit\factory\InternetExplorer.class
com\imfit\pageobject\locator\LoginLocators.class
com\imfit\helper\ResolutionPropertyParser.class
com\imfit\pageobject\locator\CaluclatorDefaultLocators.class
com\imfit\login\TestDataValidationS2Nextbuttonnotenable.class
com\imfit\login\TestDataValidationS4NextButtonEnable.class
